Model Switching · PlantSimEngine.jl
…
meteo_day = CSV.read(joinpath(pkgdir(PlantSimEngine), "examples/meteo_day.csv"), DataFrame, header=18)
TipTo reproduce this meteorology, you can check the code presented in this section in the FAQ

We can now run the simulation:

run!(models, meteo_day)

┌ Warning: A parallel executor was provided (`executor=ThreadedEx()`) but some models cannot be run in parallel: Main.ToyRUEGrowthModel{Float64}(0.2). The simulation will be run sequentially. Use `executor=SequentialEx()` to remove this warning.
└ @ PlantSimEngine ~/work/PlantSimEngine.jl/PlantSimEngine.jl/src/run.jl:250
NoteYou'll notice a warning returned by run! here. If you read its content, you'll see it says that ToyRUEGrowthModel does not allow for parallel computations over time-steps. This is because it uses values from the previous time-steps in its computations. By default, run! makes the simulations in parallel, so to avoid the warning, you must explicitly tell it to use a sequential execution instead. To do so, you can use the executor=SequentialEx() keyword argument.

And then we can access the status of the ModelList using the status function:

status(models)

TimeStepTable{Status{(:degree_days_cu, :LAI...}(365 x 5):
╭─────┬────────────────┬────────────┬───────────┬────────────┬──────────────────
│ Row │ degree_days_cu │        LAI │     aPPFD │    biomass │ biomass_increme ⋯
│     │        Float64 │    Float64 │   Float64 │    Float64 │           Float ⋯
├─────┼────────────────┼────────────┼───────────┼────────────┼──────────────────
│   1 │            0.0 │ 0.00554988 │ 0.0396961 │ 0.00793922 │        0.007939 ⋯
│   2 │            0.0 │ 0.00554988 │   0.02173 │  0.0122852 │          0.0043 ⋯
│   3 │            0.0 │ 0.00554988 │ 0.0314899 │  0.0185832 │        0.006297 ⋯
│   4 │            0.0 │ 0.00554988 │ 0.0390834 │  0.0263999 │        0.007816 ⋯
│   5 │            0.0 │ 0.00554988 │ 0.0454514 │  0.0354902 │        0.009090 ⋯
│   6 │            0.0 │ 0.00554988 │ 0.0472677 │  0.0449437 │        0.009453 ⋯
│   7 │            0.0 │ 0.00554988 │   0.04346 │  0.0536357 │        0.008692 ⋯
│   8 │            0.0 │ 0.00554988 │ 0.0469832 │  0.0630324 │        0.009396 ⋯
│   9 │            0.0 │ 0.00554988 │ 0.0291703 │  0.0688664 │        0.005834 ⋯
│  10 │            0.0 │ 0.00554988 │ 0.0140052 │  0.0716675 │        0.002801 ⋯
│  11 │            0.0 │ 0.00554988 │ 0.0505283 │  0.0817731 │         0.01010 ⋯
│  12 │            0.0 │ 0.00554988 │ 0.0405277 │  0.0898787 │        0.008105 ⋯
│  13 │         0.5625 │ 0.00557831 │ 0.0297814 │   0.095835 │        0.005956 ⋯
│  14 │       0.945833 │ 0.00559777 │ 0.0433269 │     0.1045 │        0.008665 ⋯
│  15 │       0.979167 │ 0.00559946 │ 0.0470271 │   0.113906 │        0.009405 ⋯
│  ⋮  │       ⋮        │     ⋮      │     ⋮     │     ⋮      │         ⋮       ⋱
╰─────┴────────────────┴────────────┴───────────┴────────────┴──────────────────
                                                   1 column and 350 rows omitted
Now what if we want to switch the model that computes growth ? We can do this by simply replacing the model in the ModelList, and PlantSimEngine will automatically update the dependency graph, and adapt the simulation to the new model.
Let's switch ToyRUEGrowthModel by ToyAssimGrowthModel:

models2 = ModelList(
    ToyLAIModel(),
    Beer(0.5),
    ToyAssimGrowthModel(), # This was `ToyRUEGrowthModel(0.2)` before
    status=(degree_days_cu=cumsum(meteo_day.degree_days),),
)
ToyAssimGrowthModel is a little bit more complex than ToyRUEGrowthModel, as it also computes the maintenance and growth respiration of the plant, so it has more parameters (we use the default values here).
We can run a new simulation:

run!(models2, meteo_day)

┌ Warning: A parallel executor was provided (`executor=ThreadedEx()`) but some models cannot be run in parallel: Main.ToyAssimGrowthModel{Float64}(0.2, 0.5, 1.2). The simulation will be run sequentially. Use `executor=SequentialEx()` to remove this warning.
└ @ PlantSimEngine ~/work/PlantSimEngine.jl/PlantSimEngine.jl/src/run.jl:250
And we can see that the status of the variables is different from the previous simulation:

status(models2)

TimeStepTable{Status{(:degree_days_cu, :LAI...}(365 x 8):
╭─────┬────────────────┬────────────┬───────────┬────────────┬────────────┬─────
│ Row │ degree_days_cu │        LAI │     aPPFD │          A │         Rm │    ⋯
│     │        Float64 │    Float64 │   Float64 │    Float64 │    Float64 │  F ⋯
├─────┼────────────────┼────────────┼───────────┼────────────┼────────────┼─────
│   1 │            0.0 │ 0.00554988 │ 0.0396961 │ 0.00793922 │ 0.00396961 │ 0. ⋯
│   2 │            0.0 │ 0.00554988 │   0.02173 │   0.004346 │   0.002173 │ 0. ⋯
│   3 │            0.0 │ 0.00554988 │ 0.0314899 │ 0.00629798 │ 0.00314899 │ 0. ⋯
│   4 │            0.0 │ 0.00554988 │ 0.0390834 │ 0.00781668 │ 0.00390834 │ 0. ⋯
│   5 │            0.0 │ 0.00554988 │ 0.0454514 │ 0.00909028 │ 0.00454514 │ 0. ⋯
│   6 │            0.0 │ 0.00554988 │ 0.0472677 │ 0.00945354 │ 0.00472677 │ 0. ⋯
│   7 │            0.0 │ 0.00554988 │   0.04346 │ 0.00869201 │   0.004346 │ 0. ⋯
│   8 │            0.0 │ 0.00554988 │ 0.0469832 │ 0.00939665 │ 0.00469832 │ 0. ⋯
│   9 │            0.0 │ 0.00554988 │ 0.0291703 │ 0.00583406 │ 0.00291703 │ 0. ⋯
│  10 │            0.0 │ 0.00554988 │ 0.0140052 │ 0.00280105 │ 0.00140052 │ 0. ⋯
│  11 │            0.0 │ 0.00554988 │ 0.0505283 │  0.0101057 │ 0.00505283 │ 0. ⋯
│  12 │            0.0 │ 0.00554988 │ 0.0405277 │ 0.00810554 │ 0.00405277 │ 0. ⋯
│  13 │         0.5625 │ 0.00557831 │ 0.0297814 │ 0.00595629 │ 0.00297814 │ 0. ⋯
│  14 │       0.945833 │ 0.00559777 │ 0.0433269 │ 0.00866538 │ 0.00433269 │ 0. ⋯
│  15 │       0.979167 │ 0.00559946 │ 0.0470271 │ 0.00940542 │ 0.00470271 │ 0. ⋯
│  ⋮  │       ⋮        │     ⋮      │     ⋮     │     ⋮      │     ⋮      │    ⋱
╰─────┴────────────────┴────────────┴───────────┴────────────┴────────────┴─────
                                                  3 columns and 350 rows omitted
…
